caseid,stanzaId,comm,intero,relat,test,time,holism,nature,nodrug,dissat,ineffec,nocure,rejec.post,rejec.prior,side,eco,gene,nutri,psych,vital,attack,block,chaos,overl,punish,weak,exper,sci,cam,fam,md,miscel,net,peer,pers
1,0,0,0,0,0,0,0,0,0,0,0,0,0,0,0,0,0,0,0,0,0,0,0,0,0,0,0,0,0,0,0,0,0,0,0
1,1,1,0,0,0,0,0,0,0,0,0,0,0,0,0,0,0,0,0,3,0,0,0,0,0,0,0,0,2,0,0,0,0,0,0
1,10,0,1,0,1,0,0,0,1,0,4,0,1,0,0,0,0,0,0,0,0,0,0,0,0,0,0,0,0,0,1,0,1,0,0
1,11,0,0,0,0,0,0,3,8,0,0,0,4,0,0,0,0,0,0,0,0,0,0,0,0,0,0,0,2,0,0,0,1,4,1
1,12,0,2,0,0,0,0,0,1,0,1,0,0,0,0,0,0,0,0,0,0,0,0,0,0,0,0,0,0,0,1,0,0,0,0
1,13,0,0,0,0,1,0,0,0,0,0,0,0,0,0,0,0,0,0,0,0,0,0,0,0,0,0,0,1,0,0,0,0,0,0
1,14,0,5,0,0,0,0,0,0,0,0,0,0,0,0,0,0,0,0,4,0,6,0,0,0,0,0,0,0,0,0,0,0,0,1
1,15,0,0,1,2,0,0,1,0,0,0,0,0,0,0,0,0,0,4,0,0,0,3,1,0,0,0,0,4,0,1,0,3,0,0
1,16,0,0,0,0,0,0,0,0,0,0,0,0,0,0,2,0,0,9,0,0,0,0,4,0,0,0,0,0,0,0,0,2,0,0
1,17,0,0,0,0,0,0,0,0,0,0,0,0,0,0,0,0,0,3,0,0,0,1,0,2,0,0,0,0,0,0,0,0,0,0
1,18,0,0,0,0,0,1,0,1,0,0,0,0,0,0,0,0,0,4,0,0,0,1,4,0,2,0,0,0,0,0,0,1,0,1
1,19,0,0,0,0,0,0,0,0,0,0,0,0,0,0,0,0,0,1,0,0,0,0,1,1,0,0,0,0,1,0,0,1,0,0
1,2,1,10,0,0,0,0,0,0,0,0,0,0,0,0,0,0,0,0,3,0,0,0,0,0,0,2,0,2,0,0,0,0,0,0
1,20,0,0,0,0,0,0,0,0,0,0,0,0,0,0,0,0,0,1,0,1,0,0,1,1,0,0,0,0,1,0,0,0,0,0
1,21,0,0,0,0,0,0,0,0,0,0,0,0,0,0,0,0,0,10,0,0,0,0,0,0,0,0,0,0,2,0,1,4,0,0
1,22,0,0,0,0,0,0,1,0,0,0,0,0,0,0,0,0,7,3,0,1,0,2,1,3,0,0,0,2,0,0,0,1,1,1
1,23,0,0,0,0,0,0,2,0,3,2,0,1,1,0,0,0,0,0,0,0,0,0,0,0,0,0,1,1,0,1,0,0,0,0
1,3,0,1,0,0,0,0,0,0,0,0,0,0,0,0,0,0,0,0,0,0,0,0,0,0,0,1,0,0,0,0,0,0,0,0
1,4,0,0,0,0,0,0,0,0,0,0,0,0,0,0,0,0,0,0,1,0,0,0,0,0,0,0,0,5,1,0,0,4,0,0
1,5,0,0,0,0,0,0,0,0,0,0,0,0,0,0,0,0,0,0,0,0,0,1,0,0,0,0,0,0,0,1,0,0,0,0
1,6,0,0,0,0,0,0,0,0,0,0,0,0,0,0,0,0,0,0,0,0,0,0,0,0,0,0,0,0,0,0,0,0,0,0
1,7,0,5,0,12,0,0,0,0,8,10,2,2,0,0,0,0,0,0,0,0,0,1,0,0,0,1,0,0,0,13,0,0,0,0
1,8,0,1,0,2,0,0,0,0,0,3,0,2,0,1,0,1,0,0,0,0,0,0,2,0,0,1,0,0,0,6,0,0,0,0
1,9,0,2,0,1,0,0,0,0,0,1,0,0,0,0,0,0,0,0,0,0,0,0,0,0,0,0,1,0,0,4,0,4,1,0
